{
  "entityType" : "NOTIFICATION_TEMPLATE",
  "entity" : {
    "configuration" : {
      "deliveryMethodsTemplates" : {
        "WEB" : {
          "method" : "WEB",
          "additionalConfig" : {
            "icon" : {
              "enabled" : false
            },
            "actionButtonConfig" : {
              "enabled" : false
            }
          },
          "body" : "Maintenance work is scheduled for tomorrow (7:00 a.m. - 9:00 a.m. UTC)",
          "enabled" : true,
          "subject" : "Infrastructure maintenance"
        }
      }
    },
    "externalId" : null,
    "id" : {
      "entityType" : "NOTIFICATION_TEMPLATE",
      "id" : "9a7fb1e0-9e56-11ee-8b77-75c71c5ec4fa"
    },
    "name" : "Maintenance work notification",
    "notificationType" : "GENERAL"
  },
  "relations" : [ ],
  "attributes" : {
    "SERVER_SCOPE" : [ ]
  }
}