{
  "entityType" : "ASSET",
  "entity" : {
    "additionalInfo" : null,
    "assetProfileId" : {
      "entityType" : "ASSET_PROFILE",
      "id" : "c76ba240-9e56-11ee-8b77-75c71c5ec4fa"
    },
    "customerId" : {
      "entityType" : "CUSTOMER",
      "id" : "13814000-1dd2-11b2-8080-808080808080"
    },
    "externalId" : null,
    "id" : {
      "entityType" : "ASSET",
      "id" : "00b9df20-c662-11ee-8687-950c1f0924eb"
    },
    "label" : null,
    "name" : "Main_MacBook-Pro-Nikol.local",
    "type" : "TbServiceQueue"
  },
  "relations" : [ ],
  "attributes" : {
    "SERVER_SCOPE" : [ ]
  }
}