{
  "entityType" : "ASSET",
  "entity" : {
    "additionalInfo" : null,
    "assetProfileId" : {
      "entityType" : "ASSET_PROFILE",
      "id" : "d77ea9b0-c5bc-11ee-8575-953daf6985e5"
    },
    "customerId" : {
      "entityType" : "CUSTOMER",
      "id" : "8d6e0b40-9f0b-11ee-8b77-75c71c5ec4fa"
    },
    "externalId" : null,
    "id" : {
      "entityType" : "ASSET",
      "id" : "8f126620-cf13-11ee-a214-d9db5d47c649"
    },
    "label" : null,
    "name" : "140001 - T2",
    "type" : "Virtual Section"
  },
  "relations" : [ {
    "additionalInfo" : null,
    "from" : {
      "entityType" : "ASSET",
      "id" : "8f126620-cf13-11ee-a214-d9db5d47c649"
    },
    "to" : {
      "entityType" : "ASSET",
      "id" : "8f350950-cf13-11ee-a214-d9db5d47c649"
    },
    "type" : "ends",
    "typeGroup" : "COMMON"
  }, {
    "additionalInfo" : null,
    "from" : {
      "entityType" : "ASSET",
      "id" : "8f126620-cf13-11ee-a214-d9db5d47c649"
    },
    "to" : {
      "entityType" : "ASSET",
      "id" : "8f350951-cf13-11ee-a214-d9db5d47c649"
    },
    "type" : "starts",
    "typeGroup" : "COMMON"
  } ],
  "attributes" : {
    "SERVER_SCOPE" : [ {
      "booleanValue" : true,
      "doubleValue" : null,
      "jsonValue" : null,
      "key" : "ContstructionSiteQueue",
      "lastUpdateTs" : 1708508589257,
      "longValue" : null,
      "strValue" : null
    }, {
      "booleanValue" : false,
      "doubleValue" : null,
      "jsonValue" : null,
      "key" : "constructionSiteQueue",
      "lastUpdateTs" : 1708636850615,
      "longValue" : null,
      "strValue" : null
    }, {
      "booleanValue" : false,
      "doubleValue" : null,
      "jsonValue" : null,
      "key" : "contstructionSiteQueue",
      "lastUpdateTs" : 1708526104624,
      "longValue" : null,
      "strValue" : null
    }, {
      "booleanValue" : null,
      "doubleValue" : null,
      "jsonValue" : null,
      "key" : "defaultSpeedReference",
      "lastUpdateTs" : 1708637348744,
      "longValue" : 60,
      "strValue" : null
    }, {
      "booleanValue" : null,
      "doubleValue" : null,
      "jsonValue" : null,
      "key" : "description",
      "lastUpdateTs" : 1709023862283,
      "longValue" : null,
      "strValue" : "Borgo d'ale - Novara Ovest"
    }, {
      "booleanValue" : null,
      "doubleValue" : null,
      "jsonValue" : null,
      "key" : "directionid",
      "lastUpdateTs" : 1708508577708,
      "longValue" : null,
      "strValue" : "140001"
    }, {
      "booleanValue" : null,
      "doubleValue" : 51138.8984375,
      "jsonValue" : null,
      "key" : "length",
      "lastUpdateTs" : 1708507808576,
      "longValue" : null,
      "strValue" : null
    }, {
      "booleanValue" : null,
      "doubleValue" : null,
      "jsonValue" : "[[45.294712,8.043951],[45.29861,8.048194],[45.302637,8.052554],[45.305812,8.056048],[45.310533,8.06112],[45.315126,8.06615],[45.317921,8.069136],[45.320299,8.071687],[45.321438,8.072953],[45.321523,8.073048],[45.323878,8.07559],[45.325899,8.077771],[45.326951,8.078919],[45.328828,8.080966],[45.329441,8.081634],[45.335559,8.088277],[45.33939,8.092414],[45.352529,8.106653],[45.361172,8.116056],[45.361732,8.116653],[45.362338,8.117293],[45.363685,8.118762],[45.367732,8.123164],[45.370726,8.126412],[45.371445,8.127188],[45.372904,8.128772],[45.374863,8.130897],[45.376602,8.132782],[45.379055,8.135447],[45.380317,8.136819],[45.381165,8.137734],[45.382429,8.139114],[45.384255,8.141094],[45.385049,8.14196],[45.386238,8.143254],[45.390391,8.147751],[45.392591,8.150171],[45.393597,8.151282],[45.394737,8.15254],[45.395238,8.153076],[45.398704,8.156766],[45.399556,8.157753],[45.400332,8.158611],[45.400601,8.158888],[45.406995,8.165792],[45.411014,8.170307],[45.413677,8.173628],[45.416274,8.177053],[45.418527,8.180392],[45.421431,8.184798],[45.422438,8.186421],[45.423852,8.18886],[45.425659,8.19233],[45.427111,8.19541],[45.428222,8.198022],[45.429708,8.202065],[45.431834,8.207772],[45.433454,8.212836],[45.434785,8.217511],[45.435382,8.219715],[45.436155,8.22292],[45.436875,8.226234],[45.437388,8.228791],[45.43832,8.234178],[45.438389,8.234584],[45.438692,8.236425],[45.438865,8.237443],[45.439318,8.2401],[45.439519,8.24128],[45.439801,8.243009],[45.440366,8.2465],[45.441657,8.254369],[45.442687,8.260549],[45.442901,8.261763],[45.444138,8.268375],[45.444702,8.271695],[45.445074,8.274498],[45.445561,8.277965],[45.445759,8.279265],[45.445953,8.280428],[45.447083,8.287143],[45.447491,8.28961],[45.447753,8.291191],[45.448251,8.294179],[45.448574,8.296232],[45.449606,8.30234],[45.449877,8.304061],[45.450824,8.309806],[45.452532,8.320193],[45.454708,8.333251],[45.455421,8.337544],[45.455561,8.338405],[45.455778,8.339733],[45.456304,8.342909],[45.457514,8.35021],[45.458368,8.355403],[45.458411,8.355639],[45.458468,8.356036],[45.459493,8.362198],[45.460011,8.365888],[45.460498,8.369766],[45.460772,8.372336],[45.460998,8.374752],[45.461197,8.377367],[45.461295,8.378815],[45.461528,8.383087],[45.461689,8.386606],[45.461835,8.389307],[45.462347,8.395918],[45.462511,8.398189],[45.462733,8.40237],[45.462832,8.40497],[45.462888,8.407467],[45.463081,8.412233],[45.463455,8.419041],[45.463979,8.428807],[45.464001,8.429173],[45.464336,8.435621],[45.464446,8.437398],[45.464653,8.440377],[45.464894,8.4437],[45.46519,8.447623],[45.465325,8.449579],[45.465529,8.452309],[45.465809,8.456221],[45.466302,8.462974],[45.466539,8.466058],[45.46669,8.468123],[45.467044,8.472959],[45.467494,8.479107],[45.46782,8.483553],[45.468116,8.48763],[45.468147,8.488045],[45.468439,8.492007],[45.468444,8.492077],[45.469565,8.507337],[45.470597,8.521522],[45.471213,8.52996],[45.471225,8.530119],[45.471797,8.537887],[45.472217,8.54371],[45.472641,8.549521],[45.473058,8.555264],[45.473715,8.562775],[45.473957,8.565326],[45.474186,8.568144],[45.474375,8.570576],[45.474449,8.571926],[45.474563,8.573382],[45.474589,8.573792],[45.474635,8.574623],[45.474725,8.576295],[45.474801,8.577828],[45.474875,8.579895],[45.474908,8.581324],[45.474916,8.582947],[45.474899,8.584514],[45.474865,8.585645],[45.474843,8.58622],[45.47478,8.587781],[45.474713,8.588789],[45.474664,8.589347],[45.474531,8.59096],[45.474391,8.5924],[45.474303,8.593144],[45.474158,8.594326],[45.473981,8.595665],[45.473657,8.597815],[45.473492,8.598832]]",
      "key" : "path",
      "lastUpdateTs" : 1708507808576,
      "longValue" : null,
      "strValue" : null
    }, {
      "booleanValue" : null,
      "doubleValue" : null,
      "jsonValue" : null,
      "key" : "roadstretch",
      "lastUpdateTs" : 1708508608471,
      "longValue" : null,
      "strValue" : "T2"
    }, {
      "booleanValue" : null,
      "doubleValue" : null,
      "jsonValue" : null,
      "key" : "sectionid",
      "lastUpdateTs" : 1708508621944,
      "longValue" : 154,
      "strValue" : null
    }, {
      "booleanValue" : null,
      "doubleValue" : null,
      "jsonValue" : "[\"ed63da2eb3b142ac4fbe21f0031bc96c_107\",\"ed63da2eb3b142ac4fbe21f0031bc96c_108\",\"ed63da2eb3b142ac4fbe21f0031bc96c_109\",\"ed63da2eb3b142ac4fbe21f0031bc96c_110\",\"ed63da2eb3b142ac4fbe21f0031bc96c_111\",\"ed63da2eb3b142ac4fbe21f0031bc96c_112\",\"ed63da2eb3b142ac4fbe21f0031bc96c_113\",\"ed63da2eb3b142ac4fbe21f0031bc96c_114\",\"ed63da2eb3b142ac4fbe21f0031bc96c_115\",\"ed63da2eb3b142ac4fbe21f0031bc96c_116\",\"ed63da2eb3b142ac4fbe21f0031bc96c_117\",\"ed63da2eb3b142ac4fbe21f0031bc96c_118\",\"ed63da2eb3b142ac4fbe21f0031bc96c_119\",\"ed63da2eb3b142ac4fbe21f0031bc96c_120\",\"ed63da2eb3b142ac4fbe21f0031bc96c_121\",\"ed63da2eb3b142ac4fbe21f0031bc96c_122\",\"ed63da2eb3b142ac4fbe21f0031bc96c_123\",\"ed63da2eb3b142ac4fbe21f0031bc96c_124\",\"ed63da2eb3b142ac4fbe21f0031bc96c_125\",\"ed63da2eb3b142ac4fbe21f0031bc96c_126\",\"ed63da2eb3b142ac4fbe21f0031bc96c_127\",\"ed63da2eb3b142ac4fbe21f0031bc96c_128\",\"ed63da2eb3b142ac4fbe21f0031bc96c_129\",\"ed63da2eb3b142ac4fbe21f0031bc96c_130\",\"ed63da2eb3b142ac4fbe21f0031bc96c_131\",\"ed63da2eb3b142ac4fbe21f0031bc96c_132\",\"ed63da2eb3b142ac4fbe21f0031bc96c_133\",\"ed63da2eb3b142ac4fbe21f0031bc96c_134\",\"ed63da2eb3b142ac4fbe21f0031bc96c_135\",\"ed63da2eb3b142ac4fbe21f0031bc96c_136\",\"ed63da2eb3b142ac4fbe21f0031bc96c_137\",\"ed63da2eb3b142ac4fbe21f0031bc96c_138\",\"ed63da2eb3b142ac4fbe21f0031bc96c_139\",\"ed63da2eb3b142ac4fbe21f0031bc96c_140\",\"ed63da2eb3b142ac4fbe21f0031bc96c_141\",\"cd0f56625cdaa4d366504a28ec6ae25b_0\",\"cd0f56625cdaa4d366504a28ec6ae25b_1\",\"cd0f56625cdaa4d366504a28ec6ae25b_2\",\"cd0f56625cdaa4d366504a28ec6ae25b_3\",\"cd0f56625cdaa4d366504a28ec6ae25b_4\",\"cd0f56625cdaa4d366504a28ec6ae25b_5\",\"cd0f56625cdaa4d366504a28ec6ae25b_6\",\"cd0f56625cdaa4d366504a28ec6ae25b_7\",\"cd0f56625cdaa4d366504a28ec6ae25b_8\",\"cd0f56625cdaa4d366504a28ec6ae25b_9\",\"cd0f56625cdaa4d366504a28ec6ae25b_10\",\"cd0f56625cdaa4d366504a28ec6ae25b_11\",\"839baaea309a00f44df497e04bbbb3cb_0\",\"839baaea309a00f44df497e04bbbb3cb_1\",\"839baaea309a00f44df497e04bbbb3cb_2\",\"839baaea309a00f44df497e04bbbb3cb_3\",\"839baaea309a00f44df497e04bbbb3cb_4\",\"839baaea309a00f44df497e04bbbb3cb_5\",\"839baaea309a00f44df497e04bbbb3cb_6\",\"839baaea309a00f44df497e04bbbb3cb_7\",\"839baaea309a00f44df497e04bbbb3cb_8\",\"839baaea309a00f44df497e04bbbb3cb_9\",\"839baaea309a00f44df497e04bbbb3cb_10\",\"839baaea309a00f44df497e04bbbb3cb_11\",\"839baaea309a00f44df497e04bbbb3cb_12\",\"839baaea309a00f44df497e04bbbb3cb_13\",\"839baaea309a00f44df497e04bbbb3cb_14\",\"839baaea309a00f44df497e04bbbb3cb_15\",\"839baaea309a00f44df497e04bbbb3cb_16\",\"839baaea309a00f44df497e04bbbb3cb_17\",\"839baaea309a00f44df497e04bbbb3cb_18\",\"839baaea309a00f44df497e04bbbb3cb_19\",\"839baaea309a00f44df497e04bbbb3cb_20\",\"839baaea309a00f44df497e04bbbb3cb_21\",\"839baaea309a00f44df497e04bbbb3cb_22\",\"839baaea309a00f44df497e04bbbb3cb_23\",\"839baaea309a00f44df497e04bbbb3cb_24\",\"839baaea309a00f44df497e04bbbb3cb_25\",\"839baaea309a00f44df497e04bbbb3cb_26\",\"839baaea309a00f44df497e04bbbb3cb_27\",\"839baaea309a00f44df497e04bbbb3cb_28\",\"839baaea309a00f44df497e04bbbb3cb_29\",\"839baaea309a00f44df497e04bbbb3cb_30\",\"839baaea309a00f44df497e04bbbb3cb_31\",\"839baaea309a00f44df497e04bbbb3cb_32\",\"839baaea309a00f44df497e04bbbb3cb_33\",\"839baaea309a00f44df497e04bbbb3cb_34\",\"839baaea309a00f44df497e04bbbb3cb_35\",\"839baaea309a00f44df497e04bbbb3cb_36\",\"839baaea309a00f44df497e04bbbb3cb_37\",\"839baaea309a00f44df497e04bbbb3cb_38\",\"839baaea309a00f44df497e04bbbb3cb_39\",\"839baaea309a00f44df497e04bbbb3cb_40\",\"839baaea309a00f44df497e04bbbb3cb_41\",\"839baaea309a00f44df497e04bbbb3cb_42\",\"839baaea309a00f44df497e04bbbb3cb_43\",\"839baaea309a00f44df497e04bbbb3cb_44\",\"839baaea309a00f44df497e04bbbb3cb_45\",\"839baaea309a00f44df497e04bbbb3cb_46\",\"839baaea309a00f44df497e04bbbb3cb_47\",\"839baaea309a00f44df497e04bbbb3cb_48\",\"839baaea309a00f44df497e04bbbb3cb_49\",\"839baaea309a00f44df497e04bbbb3cb_50\",\"839baaea309a00f44df497e04bbbb3cb_51\",\"839baaea309a00f44df497e04bbbb3cb_52\",\"839baaea309a00f44df497e04bbbb3cb_53\",\"839baaea309a00f44df497e04bbbb3cb_54\",\"839baaea309a00f44df497e04bbbb3cb_55\",\"839baaea309a00f44df497e04bbbb3cb_56\",\"839baaea309a00f44df497e04bbbb3cb_57\",\"839baaea309a00f44df497e04bbbb3cb_58\",\"839baaea309a00f44df497e04bbbb3cb_59\",\"839baaea309a00f44df497e04bbbb3cb_60\",\"839baaea309a00f44df497e04bbbb3cb_61\",\"839baaea309a00f44df497e04bbbb3cb_62\",\"839baaea309a00f44df497e04bbbb3cb_63\",\"4fc9208054badec1fd964138b76ebe49_0\",\"4fc9208054badec1fd964138b76ebe49_1\",\"4fc9208054badec1fd964138b76ebe49_2\",\"4fc9208054badec1fd964138b76ebe49_3\",\"4fc9208054badec1fd964138b76ebe49_4\",\"4fc9208054badec1fd964138b76ebe49_5\",\"4fc9208054badec1fd964138b76ebe49_6\",\"4fc9208054badec1fd964138b76ebe49_7\",\"4fc9208054badec1fd964138b76ebe49_8\",\"4fc9208054badec1fd964138b76ebe49_9\",\"4fc9208054badec1fd964138b76ebe49_10\",\"4fc9208054badec1fd964138b76ebe49_11\",\"4fc9208054badec1fd964138b76ebe49_12\",\"4fc9208054badec1fd964138b76ebe49_13\",\"4fc9208054badec1fd964138b76ebe49_14\",\"4fc9208054badec1fd964138b76ebe49_15\",\"4fc9208054badec1fd964138b76ebe49_16\",\"4fc9208054badec1fd964138b76ebe49_17\",\"4fc9208054badec1fd964138b76ebe49_18\",\"4fc9208054badec1fd964138b76ebe49_19\",\"4fc9208054badec1fd964138b76ebe49_20\",\"4fc9208054badec1fd964138b76ebe49_21\",\"4fc9208054badec1fd964138b76ebe49_22\",\"4fc9208054badec1fd964138b76ebe49_23\",\"4fc9208054badec1fd964138b76ebe49_24\",\"6ff0542501deec91cfa7554007a32a72_0\",\"6ff0542501deec91cfa7554007a32a72_1\",\"6ff0542501deec91cfa7554007a32a72_2\",\"6ff0542501deec91cfa7554007a32a72_3\",\"6ff0542501deec91cfa7554007a32a72_4\",\"6ff0542501deec91cfa7554007a32a72_5\",\"6ff0542501deec91cfa7554007a32a72_6\",\"6ff0542501deec91cfa7554007a32a72_7\",\"6ff0542501deec91cfa7554007a32a72_8\",\"6ff0542501deec91cfa7554007a32a72_9\",\"6ff0542501deec91cfa7554007a32a72_10\",\"6ff0542501deec91cfa7554007a32a72_11\",\"6ff0542501deec91cfa7554007a32a72_12\",\"6ff0542501deec91cfa7554007a32a72_13\",\"6ff0542501deec91cfa7554007a32a72_14\",\"6ff0542501deec91cfa7554007a32a72_15\",\"6ff0542501deec91cfa7554007a32a72_16\",\"6ff0542501deec91cfa7554007a32a72_17\",\"6ff0542501deec91cfa7554007a32a72_18\",\"6ff0542501deec91cfa7554007a32a72_19\",\"6ff0542501deec91cfa7554007a32a72_20\",\"6ff0542501deec91cfa7554007a32a72_21\",\"6ff0542501deec91cfa7554007a32a72_22\",\"6ff0542501deec91cfa7554007a32a72_23\",\"6ff0542501deec91cfa7554007a32a72_24\",\"6ff0542501deec91cfa7554007a32a72_25\",\"6ff0542501deec91cfa7554007a32a72_26\",\"6ff0542501deec91cfa7554007a32a72_27\",\"6ff0542501deec91cfa7554007a32a72_28\",\"6ff0542501deec91cfa7554007a32a72_29\",\"6ff0542501deec91cfa7554007a32a72_30\",\"6ff0542501deec91cfa7554007a32a72_31\",\"6ff0542501deec91cfa7554007a32a72_32\",\"6ff0542501deec91cfa7554007a32a72_33\",\"6ff0542501deec91cfa7554007a32a72_34\",\"6ff0542501deec91cfa7554007a32a72_35\",\"6ff0542501deec91cfa7554007a32a72_36\",\"6ff0542501deec91cfa7554007a32a72_37\",\"6ff0542501deec91cfa7554007a32a72_38\",\"6ff0542501deec91cfa7554007a32a72_39\",\"6ff0542501deec91cfa7554007a32a72_40\",\"6ff0542501deec91cfa7554007a32a72_41\",\"6ff0542501deec91cfa7554007a32a72_42\",\"6ff0542501deec91cfa7554007a32a72_43\",\"6ff0542501deec91cfa7554007a32a72_44\",\"6ff0542501deec91cfa7554007a32a72_45\",\"6ff0542501deec91cfa7554007a32a72_46\",\"6ff0542501deec91cfa7554007a32a72_47\",\"6ff0542501deec91cfa7554007a32a72_48\",\"6ff0542501deec91cfa7554007a32a72_49\",\"6ff0542501deec91cfa7554007a32a72_50\",\"6ff0542501deec91cfa7554007a32a72_51\",\"6ff0542501deec91cfa7554007a32a72_52\",\"6ff0542501deec91cfa7554007a32a72_53\",\"6ff0542501deec91cfa7554007a32a72_54\",\"6ff0542501deec91cfa7554007a32a72_55\",\"6ff0542501deec91cfa7554007a32a72_56\",\"6ff0542501deec91cfa7554007a32a72_57\",\"6ff0542501deec91cfa7554007a32a72_58\",\"6ff0542501deec91cfa7554007a32a72_59\",\"6ff0542501deec91cfa7554007a32a72_60\",\"6ff0542501deec91cfa7554007a32a72_61\",\"6ff0542501deec91cfa7554007a32a72_62\",\"6ff0542501deec91cfa7554007a32a72_63\",\"6ff0542501deec91cfa7554007a32a72_64\",\"6ff0542501deec91cfa7554007a32a72_65\",\"6ff0542501deec91cfa7554007a32a72_66\",\"6ff0542501deec91cfa7554007a32a72_67\",\"6ff0542501deec91cfa7554007a32a72_68\",\"6ff0542501deec91cfa7554007a32a72_69\",\"6ff0542501deec91cfa7554007a32a72_70\",\"6ff0542501deec91cfa7554007a32a72_71\",\"6ff0542501deec91cfa7554007a32a72_72\",\"6ff0542501deec91cfa7554007a32a72_73\",\"6ff0542501deec91cfa7554007a32a72_74\",\"6ff0542501deec91cfa7554007a32a72_75\",\"6ff0542501deec91cfa7554007a32a72_76\",\"6ff0542501deec91cfa7554007a32a72_77\",\"6ff0542501deec91cfa7554007a32a72_78\",\"6ff0542501deec91cfa7554007a32a72_79\",\"6ff0542501deec91cfa7554007a32a72_80\",\"6ff0542501deec91cfa7554007a32a72_81\",\"6ff0542501deec91cfa7554007a32a72_82\",\"6ff0542501deec91cfa7554007a32a72_83\",\"6ff0542501deec91cfa7554007a32a72_84\",\"6ff0542501deec91cfa7554007a32a72_85\",\"6ff0542501deec91cfa7554007a32a72_86\",\"6ff0542501deec91cfa7554007a32a72_87\",\"6ff0542501deec91cfa7554007a32a72_88\",\"6ff0542501deec91cfa7554007a32a72_89\",\"6a12adfdd1008daa76629d90f121470d_0\",\"6a12adfdd1008daa76629d90f121470d_1\",\"6a12adfdd1008daa76629d90f121470d_2\",\"6a12adfdd1008daa76629d90f121470d_3\",\"6a12adfdd1008daa76629d90f121470d_4\",\"6a12adfdd1008daa76629d90f121470d_5\",\"6a12adfdd1008daa76629d90f121470d_6\",\"6a12adfdd1008daa76629d90f121470d_7\",\"6a12adfdd1008daa76629d90f121470d_8\",\"6a12adfdd1008daa76629d90f121470d_9\",\"6a12adfdd1008daa76629d90f121470d_10\",\"6a12adfdd1008daa76629d90f121470d_11\",\"6a12adfdd1008daa76629d90f121470d_12\",\"6a12adfdd1008daa76629d90f121470d_13\",\"6a12adfdd1008daa76629d90f121470d_14\",\"6a12adfdd1008daa76629d90f121470d_15\",\"6a12adfdd1008daa76629d90f121470d_16\",\"6a12adfdd1008daa76629d90f121470d_17\",\"6a12adfdd1008daa76629d90f121470d_18\",\"6a12adfdd1008daa76629d90f121470d_19\",\"a43bd73c43f6acc38ad5de53c7bcc702_0\",\"a43bd73c43f6acc38ad5de53c7bcc702_1\",\"a43bd73c43f6acc38ad5de53c7bcc702_2\",\"a43bd73c43f6acc38ad5de53c7bcc702_3\",\"a43bd73c43f6acc38ad5de53c7bcc702_4\",\"a43bd73c43f6acc38ad5de53c7bcc702_5\",\"a43bd73c43f6acc38ad5de53c7bcc702_6\",\"a43bd73c43f6acc38ad5de53c7bcc702_7\",\"a43bd73c43f6acc38ad5de53c7bcc702_8\",\"a43bd73c43f6acc38ad5de53c7bcc702_9\",\"a43bd73c43f6acc38ad5de53c7bcc702_10\",\"a43bd73c43f6acc38ad5de53c7bcc702_11\",\"a43bd73c43f6acc38ad5de53c7bcc702_12\",\"a43bd73c43f6acc38ad5de53c7bcc702_13\",\"a43bd73c43f6acc38ad5de53c7bcc702_14\",\"a43bd73c43f6acc38ad5de53c7bcc702_15\",\"a43bd73c43f6acc38ad5de53c7bcc702_16\",\"a43bd73c43f6acc38ad5de53c7bcc702_17\",\"a43bd73c43f6acc38ad5de53c7bcc702_18\",\"a43bd73c43f6acc38ad5de53c7bcc702_19\",\"a43bd73c43f6acc38ad5de53c7bcc702_20\",\"a43bd73c43f6acc38ad5de53c7bcc702_21\",\"a43bd73c43f6acc38ad5de53c7bcc702_22\",\"a43bd73c43f6acc38ad5de53c7bcc702_23\",\"a43bd73c43f6acc38ad5de53c7bcc702_24\",\"a43bd73c43f6acc38ad5de53c7bcc702_25\",\"a43bd73c43f6acc38ad5de53c7bcc702_26\",\"a43bd73c43f6acc38ad5de53c7bcc702_27\",\"a43bd73c43f6acc38ad5de53c7bcc702_28\",\"a43bd73c43f6acc38ad5de53c7bcc702_29\",\"a43bd73c43f6acc38ad5de53c7bcc702_30\",\"a43bd73c43f6acc38ad5de53c7bcc702_31\",\"a43bd73c43f6acc38ad5de53c7bcc702_32\",\"a43bd73c43f6acc38ad5de53c7bcc702_33\",\"a43bd73c43f6acc38ad5de53c7bcc702_34\",\"a43bd73c43f6acc38ad5de53c7bcc702_35\",\"a43bd73c43f6acc38ad5de53c7bcc702_36\",\"a43bd73c43f6acc38ad5de53c7bcc702_37\",\"a43bd73c43f6acc38ad5de53c7bcc702_38\",\"a43bd73c43f6acc38ad5de53c7bcc702_39\",\"a43bd73c43f6acc38ad5de53c7bcc702_40\",\"a43bd73c43f6acc38ad5de53c7bcc702_41\",\"a43bd73c43f6acc38ad5de53c7bcc702_42\",\"a43bd73c43f6acc38ad5de53c7bcc702_43\",\"a43bd73c43f6acc38ad5de53c7bcc702_44\",\"a43bd73c43f6acc38ad5de53c7bcc702_45\",\"a43bd73c43f6acc38ad5de53c7bcc702_46\",\"a43bd73c43f6acc38ad5de53c7bcc702_47\",\"3d697d617e8a7cb398cfd9c4c5e7777a_0\",\"3d697d617e8a7cb398cfd9c4c5e7777a_1\",\"3d697d617e8a7cb398cfd9c4c5e7777a_2\",\"3d697d617e8a7cb398cfd9c4c5e7777a_3\",\"3d697d617e8a7cb398cfd9c4c5e7777a_4\",\"3d697d617e8a7cb398cfd9c4c5e7777a_5\",\"3d697d617e8a7cb398cfd9c4c5e7777a_6\",\"3d697d617e8a7cb398cfd9c4c5e7777a_7\",\"3d697d617e8a7cb398cfd9c4c5e7777a_8\",\"3d697d617e8a7cb398cfd9c4c5e7777a_9\",\"3d697d617e8a7cb398cfd9c4c5e7777a_10\",\"3d697d617e8a7cb398cfd9c4c5e7777a_11\",\"c60a45c388313fef6e2207c2cf8f41a6_0\",\"c60a45c388313fef6e2207c2cf8f41a6_1\",\"c60a45c388313fef6e2207c2cf8f41a6_2\",\"c60a45c388313fef6e2207c2cf8f41a6_3\",\"c60a45c388313fef6e2207c2cf8f41a6_4\",\"c60a45c388313fef6e2207c2cf8f41a6_5\",\"c60a45c388313fef6e2207c2cf8f41a6_6\",\"c60a45c388313fef6e2207c2cf8f41a6_7\",\"c60a45c388313fef6e2207c2cf8f41a6_8\",\"c60a45c388313fef6e2207c2cf8f41a6_9\",\"c60a45c388313fef6e2207c2cf8f41a6_10\",\"c60a45c388313fef6e2207c2cf8f41a6_11\",\"c60a45c388313fef6e2207c2cf8f41a6_12\",\"c60a45c388313fef6e2207c2cf8f41a6_13\",\"c60a45c388313fef6e2207c2cf8f41a6_14\",\"c60a45c388313fef6e2207c2cf8f41a6_15\",\"c60a45c388313fef6e2207c2cf8f41a6_16\",\"c60a45c388313fef6e2207c2cf8f41a6_17\",\"c60a45c388313fef6e2207c2cf8f41a6_18\",\"c60a45c388313fef6e2207c2cf8f41a6_19\",\"c60a45c388313fef6e2207c2cf8f41a6_20\",\"c60a45c388313fef6e2207c2cf8f41a6_21\",\"c60a45c388313fef6e2207c2cf8f41a6_22\",\"c60a45c388313fef6e2207c2cf8f41a6_23\",\"c60a45c388313fef6e2207c2cf8f41a6_24\",\"c60a45c388313fef6e2207c2cf8f41a6_25\",\"c60a45c388313fef6e2207c2cf8f41a6_26\",\"c60a45c388313fef6e2207c2cf8f41a6_27\",\"c60a45c388313fef6e2207c2cf8f41a6_28\",\"c60a45c388313fef6e2207c2cf8f41a6_29\",\"c60a45c388313fef6e2207c2cf8f41a6_30\",\"c60a45c388313fef6e2207c2cf8f41a6_31\",\"c60a45c388313fef6e2207c2cf8f41a6_32\",\"c60a45c388313fef6e2207c2cf8f41a6_33\",\"c60a45c388313fef6e2207c2cf8f41a6_34\",\"c60a45c388313fef6e2207c2cf8f41a6_35\",\"c60a45c388313fef6e2207c2cf8f41a6_36\",\"c60a45c388313fef6e2207c2cf8f41a6_37\",\"c60a45c388313fef6e2207c2cf8f41a6_38\",\"c60a45c388313fef6e2207c2cf8f41a6_39\",\"c60a45c388313fef6e2207c2cf8f41a6_40\",\"c60a45c388313fef6e2207c2cf8f41a6_41\",\"c60a45c388313fef6e2207c2cf8f41a6_42\",\"c60a45c388313fef6e2207c2cf8f41a6_43\",\"c60a45c388313fef6e2207c2cf8f41a6_44\",\"c60a45c388313fef6e2207c2cf8f41a6_45\",\"c60a45c388313fef6e2207c2cf8f41a6_46\",\"c60a45c388313fef6e2207c2cf8f41a6_47\",\"c60a45c388313fef6e2207c2cf8f41a6_48\",\"c60a45c388313fef6e2207c2cf8f41a6_49\",\"c60a45c388313fef6e2207c2cf8f41a6_50\",\"c60a45c388313fef6e2207c2cf8f41a6_51\",\"c60a45c388313fef6e2207c2cf8f41a6_52\",\"c60a45c388313fef6e2207c2cf8f41a6_53\",\"c60a45c388313fef6e2207c2cf8f41a6_54\",\"c60a45c388313fef6e2207c2cf8f41a6_55\",\"c60a45c388313fef6e2207c2cf8f41a6_56\",\"c60a45c388313fef6e2207c2cf8f41a6_57\",\"c60a45c388313fef6e2207c2cf8f41a6_58\",\"c60a45c388313fef6e2207c2cf8f41a6_59\",\"c60a45c388313fef6e2207c2cf8f41a6_60\",\"c60a45c388313fef6e2207c2cf8f41a6_61\",\"c60a45c388313fef6e2207c2cf8f41a6_62\",\"c60a45c388313fef6e2207c2cf8f41a6_63\",\"c60a45c388313fef6e2207c2cf8f41a6_64\",\"c60a45c388313fef6e2207c2cf8f41a6_65\",\"c60a45c388313fef6e2207c2cf8f41a6_66\",\"c60a45c388313fef6e2207c2cf8f41a6_67\",\"c60a45c388313fef6e2207c2cf8f41a6_68\",\"c60a45c388313fef6e2207c2cf8f41a6_69\",\"c60a45c388313fef6e2207c2cf8f41a6_70\",\"921ba3e295642c75b1fc46a35236a16c_0\",\"921ba3e295642c75b1fc46a35236a16c_1\",\"921ba3e295642c75b1fc46a35236a16c_2\",\"921ba3e295642c75b1fc46a35236a16c_3\",\"921ba3e295642c75b1fc46a35236a16c_4\",\"921ba3e295642c75b1fc46a35236a16c_5\",\"921ba3e295642c75b1fc46a35236a16c_6\",\"921ba3e295642c75b1fc46a35236a16c_7\",\"921ba3e295642c75b1fc46a35236a16c_8\",\"921ba3e295642c75b1fc46a35236a16c_9\",\"921ba3e295642c75b1fc46a35236a16c_10\",\"921ba3e295642c75b1fc46a35236a16c_11\",\"9e21a78b5852fac0eadd3afeeb6bb55a_0\",\"9e21a78b5852fac0eadd3afeeb6bb55a_1\",\"9e21a78b5852fac0eadd3afeeb6bb55a_2\",\"9e21a78b5852fac0eadd3afeeb6bb55a_3\",\"9e21a78b5852fac0eadd3afeeb6bb55a_4\",\"9e21a78b5852fac0eadd3afeeb6bb55a_5\",\"9e21a78b5852fac0eadd3afeeb6bb55a_6\",\"9e21a78b5852fac0eadd3afeeb6bb55a_7\",\"9e21a78b5852fac0eadd3afeeb6bb55a_8\",\"9e21a78b5852fac0eadd3afeeb6bb55a_9\",\"9e21a78b5852fac0eadd3afeeb6bb55a_10\",\"9e21a78b5852fac0eadd3afeeb6bb55a_11\",\"9e21a78b5852fac0eadd3afeeb6bb55a_12\",\"9e21a78b5852fac0eadd3afeeb6bb55a_13\",\"9e21a78b5852fac0eadd3afeeb6bb55a_14\",\"9e21a78b5852fac0eadd3afeeb6bb55a_15\",\"9e21a78b5852fac0eadd3afeeb6bb55a_16\",\"9e21a78b5852fac0eadd3afeeb6bb55a_17\",\"9e21a78b5852fac0eadd3afeeb6bb55a_18\",\"9e21a78b5852fac0eadd3afeeb6bb55a_19\",\"9e21a78b5852fac0eadd3afeeb6bb55a_20\",\"9e21a78b5852fac0eadd3afeeb6bb55a_21\",\"9e21a78b5852fac0eadd3afeeb6bb55a_22\",\"9e21a78b5852fac0eadd3afeeb6bb55a_23\",\"9e21a78b5852fac0eadd3afeeb6bb55a_24\",\"9e21a78b5852fac0eadd3afeeb6bb55a_25\",\"9e21a78b5852fac0eadd3afeeb6bb55a_26\",\"9e21a78b5852fac0eadd3afeeb6bb55a_27\",\"9e21a78b5852fac0eadd3afeeb6bb55a_28\",\"9e21a78b5852fac0eadd3afeeb6bb55a_29\",\"9e21a78b5852fac0eadd3afeeb6bb55a_30\",\"9e21a78b5852fac0eadd3afeeb6bb55a_31\",\"9e21a78b5852fac0eadd3afeeb6bb55a_32\",\"9e21a78b5852fac0eadd3afeeb6bb55a_33\",\"9e21a78b5852fac0eadd3afeeb6bb55a_34\",\"9e21a78b5852fac0eadd3afeeb6bb55a_35\",\"9e21a78b5852fac0eadd3afeeb6bb55a_36\",\"9e21a78b5852fac0eadd3afeeb6bb55a_37\",\"9e21a78b5852fac0eadd3afeeb6bb55a_38\",\"9e21a78b5852fac0eadd3afeeb6bb55a_39\",\"9e21a78b5852fac0eadd3afeeb6bb55a_40\",\"9e21a78b5852fac0eadd3afeeb6bb55a_41\",\"9e21a78b5852fac0eadd3afeeb6bb55a_42\",\"9e21a78b5852fac0eadd3afeeb6bb55a_43\",\"9e21a78b5852fac0eadd3afeeb6bb55a_44\",\"9e21a78b5852fac0eadd3afeeb6bb55a_45\",\"9e21a78b5852fac0eadd3afeeb6bb55a_46\",\"9e21a78b5852fac0eadd3afeeb6bb55a_47\",\"9e21a78b5852fac0eadd3afeeb6bb55a_48\",\"9e21a78b5852fac0eadd3afeeb6bb55a_49\",\"10968c04a9f1a7599612bb5d90cba0e9_0\",\"10968c04a9f1a7599612bb5d90cba0e9_1\",\"10968c04a9f1a7599612bb5d90cba0e9_2\",\"10968c04a9f1a7599612bb5d90cba0e9_3\",\"10968c04a9f1a7599612bb5d90cba0e9_4\",\"10968c04a9f1a7599612bb5d90cba0e9_5\",\"10968c04a9f1a7599612bb5d90cba0e9_6\",\"10968c04a9f1a7599612bb5d90cba0e9_7\",\"10968c04a9f1a7599612bb5d90cba0e9_8\",\"10968c04a9f1a7599612bb5d90cba0e9_9\",\"10968c04a9f1a7599612bb5d90cba0e9_10\",\"10968c04a9f1a7599612bb5d90cba0e9_11\",\"10968c04a9f1a7599612bb5d90cba0e9_12\",\"10968c04a9f1a7599612bb5d90cba0e9_13\",\"10968c04a9f1a7599612bb5d90cba0e9_14\",\"10968c04a9f1a7599612bb5d90cba0e9_15\",\"10968c04a9f1a7599612bb5d90cba0e9_16\",\"10968c04a9f1a7599612bb5d90cba0e9_17\",\"10968c04a9f1a7599612bb5d90cba0e9_18\",\"10968c04a9f1a7599612bb5d90cba0e9_19\",\"10968c04a9f1a7599612bb5d90cba0e9_20\",\"10968c04a9f1a7599612bb5d90cba0e9_21\",\"10968c04a9f1a7599612bb5d90cba0e9_22\",\"10968c04a9f1a7599612bb5d90cba0e9_23\",\"10968c04a9f1a7599612bb5d90cba0e9_24\",\"10968c04a9f1a7599612bb5d90cba0e9_25\",\"10968c04a9f1a7599612bb5d90cba0e9_26\",\"60028f8e17cfb603503aa7e0cb197a3b_0\",\"60028f8e17cfb603503aa7e0cb197a3b_1\",\"60028f8e17cfb603503aa7e0cb197a3b_2\",\"60028f8e17cfb603503aa7e0cb197a3b_3\",\"60028f8e17cfb603503aa7e0cb197a3b_4\",\"3fed1b4b8d056d15e141553dbd398333_0\",\"3fed1b4b8d056d15e141553dbd398333_1\",\"3fed1b4b8d056d15e141553dbd398333_2\",\"3fed1b4b8d056d15e141553dbd398333_3\",\"3fed1b4b8d056d15e141553dbd398333_4\",\"3fed1b4b8d056d15e141553dbd398333_5\",\"3fed1b4b8d056d15e141553dbd398333_6\",\"3fed1b4b8d056d15e141553dbd398333_7\",\"3fed1b4b8d056d15e141553dbd398333_8\",\"3fed1b4b8d056d15e141553dbd398333_9\",\"3fed1b4b8d056d15e141553dbd398333_10\",\"3fed1b4b8d056d15e141553dbd398333_11\",\"3fed1b4b8d056d15e141553dbd398333_12\",\"3fed1b4b8d056d15e141553dbd398333_13\",\"3fed1b4b8d056d15e141553dbd398333_14\",\"b1fb0d84409918054a8e28a05ecc208f_0\",\"b1fb0d84409918054a8e28a05ecc208f_1\",\"b1fb0d84409918054a8e28a05ecc208f_2\",\"b1fb0d84409918054a8e28a05ecc208f_3\",\"b1fb0d84409918054a8e28a05ecc208f_4\",\"b1fb0d84409918054a8e28a05ecc208f_5\",\"b1fb0d84409918054a8e28a05ecc208f_6\",\"b1fb0d84409918054a8e28a05ecc208f_7\",\"b1fb0d84409918054a8e28a05ecc208f_8\",\"b1fb0d84409918054a8e28a05ecc208f_9\",\"b1fb0d84409918054a8e28a05ecc208f_10\",\"b1fb0d84409918054a8e28a05ecc208f_11\",\"b1fb0d84409918054a8e28a05ecc208f_12\",\"b1fb0d84409918054a8e28a05ecc208f_13\",\"b1fb0d84409918054a8e28a05ecc208f_14\",\"b1fb0d84409918054a8e28a05ecc208f_15\",\"b1fb0d84409918054a8e28a05ecc208f_16\",\"b1fb0d84409918054a8e28a05ecc208f_17\",\"b1fb0d84409918054a8e28a05ecc208f_18\",\"b1fb0d84409918054a8e28a05ecc208f_19\",\"b1fb0d84409918054a8e28a05ecc208f_20\",\"b1fb0d84409918054a8e28a05ecc208f_21\",\"b1fb0d84409918054a8e28a05ecc208f_22\",\"b1fb0d84409918054a8e28a05ecc208f_23\",\"b1fb0d84409918054a8e28a05ecc208f_24\",\"b1fb0d84409918054a8e28a05ecc208f_25\",\"b1fb0d84409918054a8e28a05ecc208f_26\",\"b1fb0d84409918054a8e28a05ecc208f_27\",\"b1fb0d84409918054a8e28a05ecc208f_28\",\"b1fb0d84409918054a8e28a05ecc208f_29\",\"b1fb0d84409918054a8e28a05ecc208f_30\",\"b1fb0d84409918054a8e28a05ecc208f_31\",\"b1fb0d84409918054a8e28a05ecc208f_32\",\"b1fb0d84409918054a8e28a05ecc208f_33\",\"b1fb0d84409918054a8e28a05ecc208f_34\",\"b1fb0d84409918054a8e28a05ecc208f_35\",\"b1fb0d84409918054a8e28a05ecc208f_36\",\"b1fb0d84409918054a8e28a05ecc208f_37\",\"b1fb0d84409918054a8e28a05ecc208f_38\",\"b1fb0d84409918054a8e28a05ecc208f_39\",\"b1fb0d84409918054a8e28a05ecc208f_40\",\"b1fb0d84409918054a8e28a05ecc208f_41\",\"b1fb0d84409918054a8e28a05ecc208f_42\",\"b1fb0d84409918054a8e28a05ecc208f_43\",\"b1fb0d84409918054a8e28a05ecc208f_44\",\"b1fb0d84409918054a8e28a05ecc208f_45\",\"b1fb0d84409918054a8e28a05ecc208f_46\",\"b1fb0d84409918054a8e28a05ecc208f_47\",\"b1fb0d84409918054a8e28a05ecc208f_48\",\"b1fb0d84409918054a8e28a05ecc208f_49\",\"b1fb0d84409918054a8e28a05ecc208f_50\",\"b1fb0d84409918054a8e28a05ecc208f_51\",\"b1fb0d84409918054a8e28a05ecc208f_52\",\"b1fb0d84409918054a8e28a05ecc208f_53\",\"b1fb0d84409918054a8e28a05ecc208f_54\",\"b1fb0d84409918054a8e28a05ecc208f_55\",\"b1fb0d84409918054a8e28a05ecc208f_56\",\"b1fb0d84409918054a8e28a05ecc208f_57\",\"b1fb0d84409918054a8e28a05ecc208f_58\",\"b1fb0d84409918054a8e28a05ecc208f_59\",\"b1fb0d84409918054a8e28a05ecc208f_60\",\"b1fb0d84409918054a8e28a05ecc208f_61\",\"b1fb0d84409918054a8e28a05ecc208f_62\",\"b1fb0d84409918054a8e28a05ecc208f_63\",\"b1fb0d84409918054a8e28a05ecc208f_64\",\"b1fb0d84409918054a8e28a05ecc208f_65\",\"b1fb0d84409918054a8e28a05ecc208f_66\",\"b1fb0d84409918054a8e28a05ecc208f_67\",\"b1fb0d84409918054a8e28a05ecc208f_68\",\"b1fb0d84409918054a8e28a05ecc208f_69\",\"b1fb0d84409918054a8e28a05ecc208f_70\",\"b1fb0d84409918054a8e28a05ecc208f_71\",\"b1fb0d84409918054a8e28a05ecc208f_72\",\"b1fb0d84409918054a8e28a05ecc208f_73\",\"b1fb0d84409918054a8e28a05ecc208f_74\",\"b1fb0d84409918054a8e28a05ecc208f_75\",\"b1fb0d84409918054a8e28a05ecc208f_76\",\"b1fb0d84409918054a8e28a05ecc208f_77\",\"089b1f246ad59cd8291062b014606708_0\",\"089b1f246ad59cd8291062b014606708_1\",\"089b1f246ad59cd8291062b014606708_2\",\"089b1f246ad59cd8291062b014606708_3\",\"089b1f246ad59cd8291062b014606708_4\",\"089b1f246ad59cd8291062b014606708_5\",\"089b1f246ad59cd8291062b014606708_6\",\"089b1f246ad59cd8291062b014606708_7\",\"4a902c3b909c8bf853ffd2091a50ad48_0\",\"4a902c3b909c8bf853ffd2091a50ad48_1\",\"4a902c3b909c8bf853ffd2091a50ad48_2\",\"4a902c3b909c8bf853ffd2091a50ad48_3\",\"4a902c3b909c8bf853ffd2091a50ad48_4\",\"3c74890eea61212f5617f86c8b75646d_0\",\"3c74890eea61212f5617f86c8b75646d_1\",\"3c74890eea61212f5617f86c8b75646d_2\",\"2c84d2978462668d1368e8d6342f54c6_0\",\"2c84d2978462668d1368e8d6342f54c6_1\",\"2c84d2978462668d1368e8d6342f54c6_2\",\"2c84d2978462668d1368e8d6342f54c6_3\",\"2c84d2978462668d1368e8d6342f54c6_4\",\"2c84d2978462668d1368e8d6342f54c6_5\",\"2c84d2978462668d1368e8d6342f54c6_6\",\"2c84d2978462668d1368e8d6342f54c6_7\",\"2c84d2978462668d1368e8d6342f54c6_8\",\"2c84d2978462668d1368e8d6342f54c6_9\",\"2c84d2978462668d1368e8d6342f54c6_10\",\"2c84d2978462668d1368e8d6342f54c6_11\",\"2c84d2978462668d1368e8d6342f54c6_12\",\"2c84d2978462668d1368e8d6342f54c6_13\",\"2c84d2978462668d1368e8d6342f54c6_14\",\"2c84d2978462668d1368e8d6342f54c6_15\",\"2c84d2978462668d1368e8d6342f54c6_16\",\"2c84d2978462668d1368e8d6342f54c6_17\",\"2c84d2978462668d1368e8d6342f54c6_18\",\"2c84d2978462668d1368e8d6342f54c6_19\",\"2c84d2978462668d1368e8d6342f54c6_20\",\"2c84d2978462668d1368e8d6342f54c6_21\",\"2c84d2978462668d1368e8d6342f54c6_22\"]",
      "key" : "subSegments",
      "lastUpdateTs" : 1708507808576,
      "longValue" : null,
      "strValue" : null
    } ]
  }
}