{
  "entityType" : "ASSET",
  "entity" : {
    "additionalInfo" : null,
    "assetProfileId" : {
      "entityType" : "ASSET_PROFILE",
      "id" : "d77ea9b0-c5bc-11ee-8575-953daf6985e5"
    },
    "customerId" : {
      "entityType" : "CUSTOMER",
      "id" : "8d6e0b40-9f0b-11ee-8b77-75c71c5ec4fa"
    },
    "externalId" : null,
    "id" : {
      "entityType" : "ASSET",
      "id" : "91eeab10-cf13-11ee-a214-d9db5d47c649"
    },
    "label" : null,
    "name" : "140001 - T3",
    "type" : "Virtual Section"
  },
  "relations" : [ {
    "additionalInfo" : null,
    "from" : {
      "entityType" : "ASSET",
      "id" : "91eeab10-cf13-11ee-a214-d9db5d47c649"
    },
    "to" : {
      "entityType" : "ASSET",
      "id" : "9205b580-cf13-11ee-a214-d9db5d47c649"
    },
    "type" : "starts",
    "typeGroup" : "COMMON"
  }, {
    "additionalInfo" : null,
    "from" : {
      "entityType" : "ASSET",
      "id" : "91eeab10-cf13-11ee-a214-d9db5d47c649"
    },
    "to" : {
      "entityType" : "ASSET",
      "id" : "9205dc90-cf13-11ee-a214-d9db5d47c649"
    },
    "type" : "ends",
    "typeGroup" : "COMMON"
  } ],
  "attributes" : {
    "SERVER_SCOPE" : [ {
      "booleanValue" : true,
      "doubleValue" : null,
      "jsonValue" : null,
      "key" : "ContstructionSiteQueue",
      "lastUpdateTs" : 1708508528651,
      "longValue" : null,
      "strValue" : null
    }, {
      "booleanValue" : false,
      "doubleValue" : null,
      "jsonValue" : null,
      "key" : "constructionSiteQueue",
      "lastUpdateTs" : 1708636850615,
      "longValue" : null,
      "strValue" : null
    }, {
      "booleanValue" : false,
      "doubleValue" : null,
      "jsonValue" : null,
      "key" : "contstructionSiteQueue",
      "lastUpdateTs" : 1708526104624,
      "longValue" : null,
      "strValue" : null
    }, {
      "booleanValue" : null,
      "doubleValue" : null,
      "jsonValue" : null,
      "key" : "defaultSpeedReference",
      "lastUpdateTs" : 1708518088799,
      "longValue" : 130,
      "strValue" : null
    }, {
      "booleanValue" : null,
      "doubleValue" : null,
      "jsonValue" : null,
      "key" : "description",
      "lastUpdateTs" : 1709023973248,
      "longValue" : null,
      "strValue" : "Novara Ovest - Marcallo Mesero"
    }, {
      "booleanValue" : null,
      "doubleValue" : null,
      "jsonValue" : null,
      "key" : "directionid",
      "lastUpdateTs" : 1708508549594,
      "longValue" : null,
      "strValue" : "140001"
    }, {
      "booleanValue" : null,
      "doubleValue" : 23069.400390625,
      "jsonValue" : null,
      "key" : "length",
      "lastUpdateTs" : 1708507861613,
      "longValue" : null,
      "strValue" : null
    }, {
      "booleanValue" : null,
      "doubleValue" : null,
      "jsonValue" : "[[45.473492,8.598832],[45.472957,8.60212],[45.472917,8.602367],[45.472506,8.604977],[45.471161,8.613742],[45.471103,8.614123],[45.470938,8.615161],[45.470918,8.615304],[45.47039,8.618727],[45.470336,8.619124],[45.469876,8.622487],[45.469739,8.623745],[45.469603,8.625176],[45.469461,8.626651],[45.469382,8.627626],[45.469241,8.629586],[45.46912,8.631658],[45.469023,8.634786],[45.468911,8.641586],[45.468897,8.642609],[45.468887,8.643203],[45.468834,8.64676],[45.468819,8.647317],[45.46879,8.649958],[45.468742,8.652521],[45.46874,8.652676],[45.468736,8.652939],[45.468669,8.656844],[45.468666,8.657094],[45.468654,8.658018],[45.468649,8.658951],[45.468634,8.659907],[45.468566,8.662964],[45.468535,8.665646],[45.468493,8.668591],[45.468445,8.671252],[45.468412,8.673477],[45.468228,8.684593],[45.468227,8.684821],[45.468196,8.686802],[45.467925,8.703472],[45.467843,8.708521],[45.467818,8.710096],[45.467608,8.722934],[45.467597,8.723599],[45.467428,8.733929],[45.467285,8.742875],[45.467218,8.747465],[45.467229,8.752081],[45.467279,8.754186],[45.467405,8.760299],[45.467862,8.767528],[45.4679,8.768096],[45.468244,8.772221],[45.468436,8.774446],[45.468732,8.777288],[45.468749,8.777473],[45.468779,8.77775],[45.468926,8.779335],[45.469119,8.781433],[45.469141,8.781859],[45.469209,8.783063],[45.469263,8.784044],[45.469337,8.78534],[45.469452,8.787853],[45.469576,8.791535],[45.469737,8.798123],[45.469774,8.799553],[45.469804,8.800678],[45.469887,8.803081],[45.469954,8.804507],[45.470032,8.805939],[45.470124,8.807087],[45.470219,8.808265],[45.470368,8.809419],[45.470521,8.810627],[45.470704,8.811726],[45.470913,8.81287],[45.471143,8.81402],[45.471378,8.81512],[45.471643,8.816236],[45.47194,8.817333],[45.473328,8.821721],[45.474099,8.823641],[45.474792,8.825255],[45.47572,8.827366],[45.476662,8.829554],[45.477436,8.83132],[45.477742,8.832018],[45.47879,8.834536],[45.479103,8.835324],[45.479613,8.836615],[45.480544,8.838978],[45.481767,8.842209],[45.4822,8.843413],[45.485038,8.851312],[45.486331,8.854871],[45.486913,8.856473],[45.488068,8.859642],[45.488644,8.861276],[45.489031,8.862444],[45.489418,8.863613],[45.489941,8.865423],[45.490351,8.866944],[45.490919,8.869582],[45.49118,8.871078],[45.491433,8.872534],[45.491627,8.873759],[45.49219,8.877309],[45.492965,8.881623],[45.493411,8.883911],[45.493443,8.884076],[45.493723,8.885512]]",
      "key" : "path",
      "lastUpdateTs" : 1708507861613,
      "longValue" : null,
      "strValue" : null
    }, {
      "booleanValue" : null,
      "doubleValue" : null,
      "jsonValue" : null,
      "key" : "roadstretch",
      "lastUpdateTs" : 1708508496321,
      "longValue" : null,
      "strValue" : "T3"
    }, {
      "booleanValue" : null,
      "doubleValue" : null,
      "jsonValue" : null,
      "key" : "sectionid",
      "lastUpdateTs" : 1708508512398,
      "longValue" : 154,
      "strValue" : null
    }, {
      "booleanValue" : null,
      "doubleValue" : null,
      "jsonValue" : "[\"2c84d2978462668d1368e8d6342f54c6_22\",\"2c84d2978462668d1368e8d6342f54c6_23\",\"2c84d2978462668d1368e8d6342f54c6_24\",\"2c84d2978462668d1368e8d6342f54c6_25\",\"2c84d2978462668d1368e8d6342f54c6_26\",\"2c84d2978462668d1368e8d6342f54c6_27\",\"2c84d2978462668d1368e8d6342f54c6_28\",\"2c84d2978462668d1368e8d6342f54c6_29\",\"2c84d2978462668d1368e8d6342f54c6_30\",\"2c84d2978462668d1368e8d6342f54c6_31\",\"2c84d2978462668d1368e8d6342f54c6_32\",\"2c84d2978462668d1368e8d6342f54c6_33\",\"2c84d2978462668d1368e8d6342f54c6_34\",\"2c84d2978462668d1368e8d6342f54c6_35\",\"2c84d2978462668d1368e8d6342f54c6_36\",\"2c84d2978462668d1368e8d6342f54c6_37\",\"2c84d2978462668d1368e8d6342f54c6_38\",\"2c84d2978462668d1368e8d6342f54c6_39\",\"2c84d2978462668d1368e8d6342f54c6_40\",\"2c84d2978462668d1368e8d6342f54c6_41\",\"2c84d2978462668d1368e8d6342f54c6_42\",\"2c84d2978462668d1368e8d6342f54c6_43\",\"2c84d2978462668d1368e8d6342f54c6_44\",\"2c84d2978462668d1368e8d6342f54c6_45\",\"2c84d2978462668d1368e8d6342f54c6_46\",\"2c84d2978462668d1368e8d6342f54c6_47\",\"2c84d2978462668d1368e8d6342f54c6_48\",\"2c84d2978462668d1368e8d6342f54c6_49\",\"2c84d2978462668d1368e8d6342f54c6_50\",\"2c84d2978462668d1368e8d6342f54c6_51\",\"2c84d2978462668d1368e8d6342f54c6_52\",\"2c84d2978462668d1368e8d6342f54c6_53\",\"2c84d2978462668d1368e8d6342f54c6_54\",\"2c84d2978462668d1368e8d6342f54c6_55\",\"2c84d2978462668d1368e8d6342f54c6_56\",\"2c84d2978462668d1368e8d6342f54c6_57\",\"2c84d2978462668d1368e8d6342f54c6_58\",\"2c84d2978462668d1368e8d6342f54c6_59\",\"2c84d2978462668d1368e8d6342f54c6_60\",\"2c84d2978462668d1368e8d6342f54c6_61\",\"2c84d2978462668d1368e8d6342f54c6_62\",\"2c84d2978462668d1368e8d6342f54c6_63\",\"2c84d2978462668d1368e8d6342f54c6_64\",\"2c84d2978462668d1368e8d6342f54c6_65\",\"2c84d2978462668d1368e8d6342f54c6_66\",\"2c84d2978462668d1368e8d6342f54c6_67\",\"2c84d2978462668d1368e8d6342f54c6_68\",\"2c84d2978462668d1368e8d6342f54c6_69\",\"2c84d2978462668d1368e8d6342f54c6_70\",\"2c84d2978462668d1368e8d6342f54c6_71\",\"2c84d2978462668d1368e8d6342f54c6_72\",\"2c84d2978462668d1368e8d6342f54c6_73\",\"2c84d2978462668d1368e8d6342f54c6_74\",\"2c84d2978462668d1368e8d6342f54c6_75\",\"2c84d2978462668d1368e8d6342f54c6_76\",\"2c84d2978462668d1368e8d6342f54c6_77\",\"2c84d2978462668d1368e8d6342f54c6_78\",\"2c84d2978462668d1368e8d6342f54c6_79\",\"2c84d2978462668d1368e8d6342f54c6_80\",\"2c84d2978462668d1368e8d6342f54c6_81\",\"2c84d2978462668d1368e8d6342f54c6_82\",\"2c84d2978462668d1368e8d6342f54c6_83\",\"2c84d2978462668d1368e8d6342f54c6_84\",\"2c84d2978462668d1368e8d6342f54c6_85\",\"2c84d2978462668d1368e8d6342f54c6_86\",\"2c84d2978462668d1368e8d6342f54c6_87\",\"2c84d2978462668d1368e8d6342f54c6_88\",\"2c84d2978462668d1368e8d6342f54c6_89\",\"2c84d2978462668d1368e8d6342f54c6_90\",\"2c84d2978462668d1368e8d6342f54c6_91\",\"2c84d2978462668d1368e8d6342f54c6_92\",\"2c84d2978462668d1368e8d6342f54c6_93\",\"2c84d2978462668d1368e8d6342f54c6_94\",\"2c84d2978462668d1368e8d6342f54c6_95\",\"2c84d2978462668d1368e8d6342f54c6_96\",\"2c84d2978462668d1368e8d6342f54c6_97\",\"fc6309eef7c68fbb4c9a39f583ff15b6_0\",\"fc6309eef7c68fbb4c9a39f583ff15b6_1\",\"fc6309eef7c68fbb4c9a39f583ff15b6_2\",\"fc6309eef7c68fbb4c9a39f583ff15b6_3\",\"fc6309eef7c68fbb4c9a39f583ff15b6_4\",\"fc6309eef7c68fbb4c9a39f583ff15b6_5\",\"fc6309eef7c68fbb4c9a39f583ff15b6_6\",\"fc6309eef7c68fbb4c9a39f583ff15b6_7\",\"fc6309eef7c68fbb4c9a39f583ff15b6_8\",\"fc6309eef7c68fbb4c9a39f583ff15b6_9\",\"fc6309eef7c68fbb4c9a39f583ff15b6_10\",\"fc6309eef7c68fbb4c9a39f583ff15b6_11\",\"fc6309eef7c68fbb4c9a39f583ff15b6_12\",\"fc6309eef7c68fbb4c9a39f583ff15b6_13\",\"fc6309eef7c68fbb4c9a39f583ff15b6_14\",\"5aff9f941e8b807191a76ecb470c4c5b_0\",\"5aff9f941e8b807191a76ecb470c4c5b_1\",\"5aff9f941e8b807191a76ecb470c4c5b_2\",\"5aff9f941e8b807191a76ecb470c4c5b_3\",\"5aff9f941e8b807191a76ecb470c4c5b_4\",\"5aff9f941e8b807191a76ecb470c4c5b_5\",\"5aff9f941e8b807191a76ecb470c4c5b_6\",\"5aff9f941e8b807191a76ecb470c4c5b_7\",\"5aff9f941e8b807191a76ecb470c4c5b_8\",\"5aff9f941e8b807191a76ecb470c4c5b_9\",\"5aff9f941e8b807191a76ecb470c4c5b_10\",\"5aff9f941e8b807191a76ecb470c4c5b_11\",\"5aff9f941e8b807191a76ecb470c4c5b_12\",\"5aff9f941e8b807191a76ecb470c4c5b_13\",\"5aff9f941e8b807191a76ecb470c4c5b_14\",\"5aff9f941e8b807191a76ecb470c4c5b_15\",\"5aff9f941e8b807191a76ecb470c4c5b_16\",\"5aff9f941e8b807191a76ecb470c4c5b_17\",\"5aff9f941e8b807191a76ecb470c4c5b_18\",\"5aff9f941e8b807191a76ecb470c4c5b_19\",\"5aff9f941e8b807191a76ecb470c4c5b_20\",\"5aff9f941e8b807191a76ecb470c4c5b_21\",\"5aff9f941e8b807191a76ecb470c4c5b_22\",\"5aff9f941e8b807191a76ecb470c4c5b_23\",\"5aff9f941e8b807191a76ecb470c4c5b_24\",\"5aff9f941e8b807191a76ecb470c4c5b_25\",\"5aff9f941e8b807191a76ecb470c4c5b_26\",\"5aff9f941e8b807191a76ecb470c4c5b_27\",\"5aff9f941e8b807191a76ecb470c4c5b_28\",\"5aff9f941e8b807191a76ecb470c4c5b_29\",\"5aff9f941e8b807191a76ecb470c4c5b_30\",\"5aff9f941e8b807191a76ecb470c4c5b_31\",\"5aff9f941e8b807191a76ecb470c4c5b_32\",\"5aff9f941e8b807191a76ecb470c4c5b_33\",\"5aff9f941e8b807191a76ecb470c4c5b_34\",\"5aff9f941e8b807191a76ecb470c4c5b_35\",\"5aff9f941e8b807191a76ecb470c4c5b_36\",\"5aff9f941e8b807191a76ecb470c4c5b_37\",\"5aff9f941e8b807191a76ecb470c4c5b_38\",\"5aff9f941e8b807191a76ecb470c4c5b_39\",\"5aff9f941e8b807191a76ecb470c4c5b_40\",\"5aff9f941e8b807191a76ecb470c4c5b_41\",\"5aff9f941e8b807191a76ecb470c4c5b_42\",\"5aff9f941e8b807191a76ecb470c4c5b_43\",\"5aff9f941e8b807191a76ecb470c4c5b_44\",\"5aff9f941e8b807191a76ecb470c4c5b_45\",\"5aff9f941e8b807191a76ecb470c4c5b_46\",\"5aff9f941e8b807191a76ecb470c4c5b_47\",\"5aff9f941e8b807191a76ecb470c4c5b_48\",\"5aff9f941e8b807191a76ecb470c4c5b_49\",\"5aff9f941e8b807191a76ecb470c4c5b_50\",\"5aff9f941e8b807191a76ecb470c4c5b_51\",\"5aff9f941e8b807191a76ecb470c4c5b_52\",\"5aff9f941e8b807191a76ecb470c4c5b_53\",\"5aff9f941e8b807191a76ecb470c4c5b_54\",\"5aff9f941e8b807191a76ecb470c4c5b_55\",\"5aff9f941e8b807191a76ecb470c4c5b_56\",\"5aff9f941e8b807191a76ecb470c4c5b_57\",\"5aff9f941e8b807191a76ecb470c4c5b_58\",\"5aff9f941e8b807191a76ecb470c4c5b_59\",\"5aff9f941e8b807191a76ecb470c4c5b_60\",\"5aff9f941e8b807191a76ecb470c4c5b_61\",\"5aff9f941e8b807191a76ecb470c4c5b_62\",\"5aff9f941e8b807191a76ecb470c4c5b_63\",\"5aff9f941e8b807191a76ecb470c4c5b_64\",\"5aff9f941e8b807191a76ecb470c4c5b_65\",\"5aff9f941e8b807191a76ecb470c4c5b_66\",\"5aff9f941e8b807191a76ecb470c4c5b_67\",\"5aff9f941e8b807191a76ecb470c4c5b_68\",\"5aff9f941e8b807191a76ecb470c4c5b_69\",\"5aff9f941e8b807191a76ecb470c4c5b_70\",\"5aff9f941e8b807191a76ecb470c4c5b_71\",\"5aff9f941e8b807191a76ecb470c4c5b_72\",\"5aff9f941e8b807191a76ecb470c4c5b_73\",\"5aff9f941e8b807191a76ecb470c4c5b_74\",\"5aff9f941e8b807191a76ecb470c4c5b_75\",\"5aff9f941e8b807191a76ecb470c4c5b_76\",\"5aff9f941e8b807191a76ecb470c4c5b_77\",\"5aff9f941e8b807191a76ecb470c4c5b_78\",\"5aff9f941e8b807191a76ecb470c4c5b_79\",\"5aff9f941e8b807191a76ecb470c4c5b_80\",\"5aff9f941e8b807191a76ecb470c4c5b_81\",\"5aff9f941e8b807191a76ecb470c4c5b_82\",\"5aff9f941e8b807191a76ecb470c4c5b_83\",\"5aff9f941e8b807191a76ecb470c4c5b_84\",\"5aff9f941e8b807191a76ecb470c4c5b_85\",\"5aff9f941e8b807191a76ecb470c4c5b_86\",\"5aff9f941e8b807191a76ecb470c4c5b_87\",\"5aff9f941e8b807191a76ecb470c4c5b_88\",\"5aff9f941e8b807191a76ecb470c4c5b_89\",\"5aff9f941e8b807191a76ecb470c4c5b_90\",\"5aff9f941e8b807191a76ecb470c4c5b_91\",\"5aff9f941e8b807191a76ecb470c4c5b_92\",\"5aff9f941e8b807191a76ecb470c4c5b_93\",\"5aff9f941e8b807191a76ecb470c4c5b_94\",\"5aff9f941e8b807191a76ecb470c4c5b_95\",\"5aff9f941e8b807191a76ecb470c4c5b_96\",\"5aff9f941e8b807191a76ecb470c4c5b_97\",\"5aff9f941e8b807191a76ecb470c4c5b_98\",\"5aff9f941e8b807191a76ecb470c4c5b_99\",\"5aff9f941e8b807191a76ecb470c4c5b_100\",\"5aff9f941e8b807191a76ecb470c4c5b_101\",\"5aff9f941e8b807191a76ecb470c4c5b_102\",\"5aff9f941e8b807191a76ecb470c4c5b_103\",\"5aff9f941e8b807191a76ecb470c4c5b_104\",\"5aff9f941e8b807191a76ecb470c4c5b_105\",\"5aff9f941e8b807191a76ecb470c4c5b_106\",\"5aff9f941e8b807191a76ecb470c4c5b_107\",\"5aff9f941e8b807191a76ecb470c4c5b_108\",\"5aff9f941e8b807191a76ecb470c4c5b_109\",\"5aff9f941e8b807191a76ecb470c4c5b_110\",\"5aff9f941e8b807191a76ecb470c4c5b_111\",\"5aff9f941e8b807191a76ecb470c4c5b_112\",\"5aff9f941e8b807191a76ecb470c4c5b_113\",\"5aff9f941e8b807191a76ecb470c4c5b_114\",\"5aff9f941e8b807191a76ecb470c4c5b_115\",\"5aff9f941e8b807191a76ecb470c4c5b_116\",\"5aff9f941e8b807191a76ecb470c4c5b_117\",\"5aff9f941e8b807191a76ecb470c4c5b_118\",\"5aff9f941e8b807191a76ecb470c4c5b_119\",\"5aff9f941e8b807191a76ecb470c4c5b_120\",\"5aff9f941e8b807191a76ecb470c4c5b_121\",\"5aff9f941e8b807191a76ecb470c4c5b_122\",\"5aff9f941e8b807191a76ecb470c4c5b_123\",\"5aff9f941e8b807191a76ecb470c4c5b_124\",\"5aff9f941e8b807191a76ecb470c4c5b_125\",\"5aff9f941e8b807191a76ecb470c4c5b_126\",\"5aff9f941e8b807191a76ecb470c4c5b_127\",\"5aff9f941e8b807191a76ecb470c4c5b_128\",\"5aff9f941e8b807191a76ecb470c4c5b_129\",\"5aff9f941e8b807191a76ecb470c4c5b_130\",\"5aff9f941e8b807191a76ecb470c4c5b_131\",\"5aff9f941e8b807191a76ecb470c4c5b_132\",\"5aff9f941e8b807191a76ecb470c4c5b_133\",\"5aff9f941e8b807191a76ecb470c4c5b_134\",\"5aff9f941e8b807191a76ecb470c4c5b_135\",\"5aff9f941e8b807191a76ecb470c4c5b_136\",\"5aff9f941e8b807191a76ecb470c4c5b_137\",\"5aff9f941e8b807191a76ecb470c4c5b_138\",\"5aff9f941e8b807191a76ecb470c4c5b_139\",\"5aff9f941e8b807191a76ecb470c4c5b_140\",\"5aff9f941e8b807191a76ecb470c4c5b_141\",\"5aff9f941e8b807191a76ecb470c4c5b_142\",\"5aff9f941e8b807191a76ecb470c4c5b_143\",\"5aff9f941e8b807191a76ecb470c4c5b_144\",\"5aff9f941e8b807191a76ecb470c4c5b_145\",\"5aff9f941e8b807191a76ecb470c4c5b_146\",\"5aff9f941e8b807191a76ecb470c4c5b_147\",\"5aff9f941e8b807191a76ecb470c4c5b_148\",\"5aff9f941e8b807191a76ecb470c4c5b_149\",\"5aff9f941e8b807191a76ecb470c4c5b_150\",\"5aff9f941e8b807191a76ecb470c4c5b_151\",\"5aff9f941e8b807191a76ecb470c4c5b_152\",\"5aff9f941e8b807191a76ecb470c4c5b_153\",\"5aff9f941e8b807191a76ecb470c4c5b_154\",\"5aff9f941e8b807191a76ecb470c4c5b_155\",\"5aff9f941e8b807191a76ecb470c4c5b_156\",\"5aff9f941e8b807191a76ecb470c4c5b_157\",\"5aff9f941e8b807191a76ecb470c4c5b_158\",\"5aff9f941e8b807191a76ecb470c4c5b_159\",\"5aff9f941e8b807191a76ecb470c4c5b_160\",\"5aff9f941e8b807191a76ecb470c4c5b_161\",\"5aff9f941e8b807191a76ecb470c4c5b_162\",\"5aff9f941e8b807191a76ecb470c4c5b_163\",\"5aff9f941e8b807191a76ecb470c4c5b_164\",\"5aff9f941e8b807191a76ecb470c4c5b_165\",\"5aff9f941e8b807191a76ecb470c4c5b_166\",\"5aff9f941e8b807191a76ecb470c4c5b_167\",\"5aff9f941e8b807191a76ecb470c4c5b_168\",\"5aff9f941e8b807191a76ecb470c4c5b_169\",\"5aff9f941e8b807191a76ecb470c4c5b_170\",\"5aff9f941e8b807191a76ecb470c4c5b_171\",\"5aff9f941e8b807191a76ecb470c4c5b_172\",\"3f52cbf7ad3aa77e23a1564c5e728880_0\",\"3f52cbf7ad3aa77e23a1564c5e728880_1\",\"3f52cbf7ad3aa77e23a1564c5e728880_2\",\"3f52cbf7ad3aa77e23a1564c5e728880_3\",\"3f52cbf7ad3aa77e23a1564c5e728880_4\",\"3f52cbf7ad3aa77e23a1564c5e728880_5\",\"3f52cbf7ad3aa77e23a1564c5e728880_6\",\"3f52cbf7ad3aa77e23a1564c5e728880_7\",\"3f52cbf7ad3aa77e23a1564c5e728880_8\",\"3f52cbf7ad3aa77e23a1564c5e728880_9\",\"3f52cbf7ad3aa77e23a1564c5e728880_10\",\"243df428f23f31b499c1196c2955000b_0\",\"243df428f23f31b499c1196c2955000b_1\",\"243df428f23f31b499c1196c2955000b_2\",\"243df428f23f31b499c1196c2955000b_3\",\"243df428f23f31b499c1196c2955000b_4\",\"243df428f23f31b499c1196c2955000b_5\",\"243df428f23f31b499c1196c2955000b_6\",\"243df428f23f31b499c1196c2955000b_7\",\"243df428f23f31b499c1196c2955000b_8\",\"243df428f23f31b499c1196c2955000b_9\",\"243df428f23f31b499c1196c2955000b_10\",\"243df428f23f31b499c1196c2955000b_11\",\"243df428f23f31b499c1196c2955000b_12\",\"243df428f23f31b499c1196c2955000b_13\",\"243df428f23f31b499c1196c2955000b_14\"]",
      "key" : "subSegments",
      "lastUpdateTs" : 1708507861613,
      "longValue" : null,
      "strValue" : null
    } ]
  }
}