{
  "entityType" : "ASSET",
  "entity" : {
    "additionalInfo" : {
      "description" : ""
    },
    "assetProfileId" : {
      "entityType" : "ASSET_PROFILE",
      "id" : "6707ae30-9f0a-11ee-8b77-75c71c5ec4fa"
    },
    "customerId" : {
      "entityType" : "CUSTOMER",
      "id" : "13814000-1dd2-11b2-8080-808080808080"
    },
    "externalId" : null,
    "id" : {
      "entityType" : "ASSET",
      "id" : "9da0efe0-c054-11ee-8b77-75c71c5ec4fa"
    },
    "label" : null,
    "name" : "S4_SUD_MESERO_RHO",
    "type" : "Section"
  },
  "relations" : [ {
    "additionalInfo" : null,
    "from" : {
      "entityType" : "CUSTOMER",
      "id" : "8d6e0b40-9f0b-11ee-8b77-75c71c5ec4fa"
    },
    "to" : {
      "entityType" : "ASSET",
      "id" : "9da0efe0-c054-11ee-8b77-75c71c5ec4fa"
    },
    "type" : "Contains",
    "typeGroup" : "COMMON"
  }, {
    "additionalInfo" : {
      "start" : false,
      "end" : true
    },
    "from" : {
      "entityType" : "ASSET",
      "id" : "9da0efe0-c054-11ee-8b77-75c71c5ec4fa"
    },
    "to" : {
      "entityType" : "ASSET",
      "id" : "f003c810-9e86-11ee-8b77-75c71c5ec4fa"
    },
    "type" : "Contains",
    "typeGroup" : "COMMON"
  }, {
    "additionalInfo" : {
      "start" : true,
      "end" : false
    },
    "from" : {
      "entityType" : "ASSET",
      "id" : "9da0efe0-c054-11ee-8b77-75c71c5ec4fa"
    },
    "to" : {
      "entityType" : "ASSET",
      "id" : "15afbc60-a015-11ee-8b77-75c71c5ec4fa"
    },
    "type" : "Contains",
    "typeGroup" : "COMMON"
  } ],
  "attributes" : {
    "SERVER_SCOPE" : [ {
      "booleanValue" : null,
      "doubleValue" : 10019.7001953125,
      "jsonValue" : null,
      "key" : "length",
      "lastUpdateTs" : 1706806138305,
      "longValue" : null,
      "strValue" : null
    }, {
      "booleanValue" : null,
      "doubleValue" : null,
      "jsonValue" : "[[45.493723,8.885512],[45.493875,8.886292],[45.49433,8.888519],[45.495143,8.892992],[45.495524,8.895234],[45.495878,8.89748],[45.495933,8.897833],[45.496582,8.901994],[45.497203,8.906527],[45.497379,8.90788],[45.497417,8.908183],[45.497689,8.910441],[45.497763,8.91112],[45.498647,8.919247],[45.500043,8.932865],[45.50031,8.936156],[45.500568,8.939126],[45.501052,8.943784],[45.501389,8.94689],[45.501709,8.949713],[45.502087,8.953049],[45.502376,8.956085],[45.502484,8.957217],[45.502926,8.962715],[45.503389,8.968795],[45.503429,8.969311],[45.504554,8.983145],[45.50514,8.990387],[45.505439,8.994198],[45.505719,8.997508],[45.505806,8.998577],[45.506086,9.002008],[45.506248,9.003987],[45.506553,9.007759],[45.506773,9.010228],[45.506947,9.012048],[45.506964,9.012214]]",
      "key" : "path",
      "lastUpdateTs" : 1706806138305,
      "longValue" : null,
      "strValue" : null
    }, {
      "booleanValue" : null,
      "doubleValue" : null,
      "jsonValue" : null,
      "key" : "segmentIds",
      "lastUpdateTs" : 1706866983988,
      "longValue" : null,
      "strValue" : "[\"243df428f23f31b499c1196c2955000b_7\",\"243df428f23f31b499c1196c2955000b_8\",\"243df428f23f31b499c1196c2955000b_9\",\"243df428f23f31b499c1196c2955000b_10\",\"243df428f23f31b499c1196c2955000b_11\",\"243df428f23f31b499c1196c2955000b_12\",\"243df428f23f31b499c1196c2955000b_13\",\"243df428f23f31b499c1196c2955000b_14\",\"243df428f23f31b499c1196c2955000b_15\",\"243df428f23f31b499c1196c2955000b_16\",\"243df428f23f31b499c1196c2955000b_17\",\"243df428f23f31b499c1196c2955000b_18\",\"243df428f23f31b499c1196c2955000b_19\",\"235faca57450ecee379f00b34c93be0d_0\",\"235faca57450ecee379f00b34c93be0d_1\",\"40b89b7783e70455796de621342475ae_0\",\"40b89b7783e70455796de621342475ae_1\",\"40b89b7783e70455796de621342475ae_2\",\"40b89b7783e70455796de621342475ae_3\",\"40b89b7783e70455796de621342475ae_4\",\"40b89b7783e70455796de621342475ae_5\",\"40b89b7783e70455796de621342475ae_6\",\"40b89b7783e70455796de621342475ae_7\",\"40b89b7783e70455796de621342475ae_8\",\"40b89b7783e70455796de621342475ae_9\",\"40b89b7783e70455796de621342475ae_10\",\"40b89b7783e70455796de621342475ae_11\",\"40b89b7783e70455796de621342475ae_12\",\"40b89b7783e70455796de621342475ae_13\",\"40b89b7783e70455796de621342475ae_14\",\"40b89b7783e70455796de621342475ae_15\",\"40b89b7783e70455796de621342475ae_16\",\"40b89b7783e70455796de621342475ae_17\",\"40b89b7783e70455796de621342475ae_18\",\"40b89b7783e70455796de621342475ae_19\",\"40b89b7783e70455796de621342475ae_20\"]"
    }, {
      "booleanValue" : null,
      "doubleValue" : null,
      "jsonValue" : "[\"243df428f23f31b499c1196c2955000b_7\",\"243df428f23f31b499c1196c2955000b_8\",\"243df428f23f31b499c1196c2955000b_9\",\"243df428f23f31b499c1196c2955000b_10\",\"243df428f23f31b499c1196c2955000b_11\",\"243df428f23f31b499c1196c2955000b_12\",\"243df428f23f31b499c1196c2955000b_13\",\"243df428f23f31b499c1196c2955000b_14\",\"243df428f23f31b499c1196c2955000b_15\",\"243df428f23f31b499c1196c2955000b_16\",\"243df428f23f31b499c1196c2955000b_17\",\"243df428f23f31b499c1196c2955000b_18\",\"243df428f23f31b499c1196c2955000b_19\",\"235faca57450ecee379f00b34c93be0d_0\",\"235faca57450ecee379f00b34c93be0d_1\",\"40b89b7783e70455796de621342475ae_0\",\"40b89b7783e70455796de621342475ae_1\",\"40b89b7783e70455796de621342475ae_2\",\"40b89b7783e70455796de621342475ae_3\",\"40b89b7783e70455796de621342475ae_4\",\"40b89b7783e70455796de621342475ae_5\",\"40b89b7783e70455796de621342475ae_6\",\"40b89b7783e70455796de621342475ae_7\",\"40b89b7783e70455796de621342475ae_8\",\"40b89b7783e70455796de621342475ae_9\",\"40b89b7783e70455796de621342475ae_10\",\"40b89b7783e70455796de621342475ae_11\",\"40b89b7783e70455796de621342475ae_12\",\"40b89b7783e70455796de621342475ae_13\",\"40b89b7783e70455796de621342475ae_14\",\"40b89b7783e70455796de621342475ae_15\",\"40b89b7783e70455796de621342475ae_16\",\"40b89b7783e70455796de621342475ae_17\",\"40b89b7783e70455796de621342475ae_18\",\"40b89b7783e70455796de621342475ae_19\",\"40b89b7783e70455796de621342475ae_20\"]",
      "key" : "subSegments",
      "lastUpdateTs" : 1706806138305,
      "longValue" : null,
      "strValue" : null
    }, {
      "booleanValue" : null,
      "doubleValue" : null,
      "jsonValue" : null,
      "key" : "test",
      "lastUpdateTs" : 1706868792781,
      "longValue" : 123,
      "strValue" : null
    } ]
  }
}