{
  "entityType" : "ASSET_PROFILE",
  "entity" : {
    "default" : false,
    "defaultDashboardId" : null,
    "defaultEdgeRuleChainId" : null,
    "defaultQueueName" : null,
    "defaultRuleChainId" : null,
    "description" : "Road Gate",
    "externalId" : null,
    "id" : {
      "entityType" : "ASSET_PROFILE",
      "id" : "62c80b20-9e7a-11ee-8b77-75c71c5ec4fa"
    },
    "image" : null,
    "name" : "Gate"
  },
  "relations" : [ ],
  "attributes" : {
    "SERVER_SCOPE" : [ ]
  }
}