{
  "entityType" : "CUSTOMER",
  "entity" : {
    "additionalInfo" : {
      "description" : "",
      "homeDashboardId" : null,
      "homeDashboardHideToolbar" : true
    },
    "address" : null,
    "address2" : null,
    "city" : null,
    "country" : null,
    "email" : null,
    "externalId" : null,
    "id" : {
      "entityType" : "CUSTOMER",
      "id" : "8d6e0b40-9f0b-11ee-8b77-75c71c5ec4fa"
    },
    "name" : "Satap",
    "phone" : null,
    "state" : null,
    "title" : "Satap",
    "zip" : null
  },
  "relations" : [ {
    "additionalInfo" : null,
    "from" : {
      "entityType" : "CUSTOMER",
      "id" : "8d6e0b40-9f0b-11ee-8b77-75c71c5ec4fa"
    },
    "to" : {
      "entityType" : "ASSET",
      "id" : "86596c50-c053-11ee-8b77-75c71c5ec4fa"
    },
    "type" : "Contains",
    "typeGroup" : "COMMON"
  }, {
    "additionalInfo" : null,
    "from" : {
      "entityType" : "CUSTOMER",
      "id" : "8d6e0b40-9f0b-11ee-8b77-75c71c5ec4fa"
    },
    "to" : {
      "entityType" : "ASSET",
      "id" : "9da0efe0-c054-11ee-8b77-75c71c5ec4fa"
    },
    "type" : "Contains",
    "typeGroup" : "COMMON"
  }, {
    "additionalInfo" : null,
    "from" : {
      "entityType" : "CUSTOMER",
      "id" : "8d6e0b40-9f0b-11ee-8b77-75c71c5ec4fa"
    },
    "to" : {
      "entityType" : "ASSET",
      "id" : "b134cc30-c053-11ee-8b77-75c71c5ec4fa"
    },
    "type" : "Contains",
    "typeGroup" : "COMMON"
  }, {
    "additionalInfo" : null,
    "from" : {
      "entityType" : "CUSTOMER",
      "id" : "8d6e0b40-9f0b-11ee-8b77-75c71c5ec4fa"
    },
    "to" : {
      "entityType" : "ASSET",
      "id" : "c811bda0-a014-11ee-8b77-75c71c5ec4fa"
    },
    "type" : "Owns",
    "typeGroup" : "COMMON"
  }, {
    "additionalInfo" : null,
    "from" : {
      "entityType" : "CUSTOMER",
      "id" : "8d6e0b40-9f0b-11ee-8b77-75c71c5ec4fa"
    },
    "to" : {
      "entityType" : "ASSET",
      "id" : "e0c7f0b0-9e86-11ee-8b77-75c71c5ec4fa"
    },
    "type" : "Owns",
    "typeGroup" : "COMMON"
  }, {
    "additionalInfo" : null,
    "from" : {
      "entityType" : "CUSTOMER",
      "id" : "8d6e0b40-9f0b-11ee-8b77-75c71c5ec4fa"
    },
    "to" : {
      "entityType" : "ASSET",
      "id" : "e1bb9690-c053-11ee-8b77-75c71c5ec4fa"
    },
    "type" : "Contains",
    "typeGroup" : "COMMON"
  }, {
    "additionalInfo" : null,
    "from" : {
      "entityType" : "CUSTOMER",
      "id" : "8d6e0b40-9f0b-11ee-8b77-75c71c5ec4fa"
    },
    "to" : {
      "entityType" : "ASSET",
      "id" : "e8489060-9e86-11ee-8b77-75c71c5ec4fa"
    },
    "type" : "Owns",
    "typeGroup" : "COMMON"
  }, {
    "additionalInfo" : null,
    "from" : {
      "entityType" : "CUSTOMER",
      "id" : "8d6e0b40-9f0b-11ee-8b77-75c71c5ec4fa"
    },
    "to" : {
      "entityType" : "ASSET",
      "id" : "f003c810-9e86-11ee-8b77-75c71c5ec4fa"
    },
    "type" : "Owns",
    "typeGroup" : "COMMON"
  }, {
    "additionalInfo" : null,
    "from" : {
      "entityType" : "CUSTOMER",
      "id" : "8d6e0b40-9f0b-11ee-8b77-75c71c5ec4fa"
    },
    "to" : {
      "entityType" : "ASSET",
      "id" : "0036a9a0-9e87-11ee-8b77-75c71c5ec4fa"
    },
    "type" : "Owns",
    "typeGroup" : "COMMON"
  }, {
    "additionalInfo" : null,
    "from" : {
      "entityType" : "CUSTOMER",
      "id" : "8d6e0b40-9f0b-11ee-8b77-75c71c5ec4fa"
    },
    "to" : {
      "entityType" : "ASSET",
      "id" : "07cdb780-9e87-11ee-8b77-75c71c5ec4fa"
    },
    "type" : "Owns",
    "typeGroup" : "COMMON"
  }, {
    "additionalInfo" : null,
    "from" : {
      "entityType" : "CUSTOMER",
      "id" : "8d6e0b40-9f0b-11ee-8b77-75c71c5ec4fa"
    },
    "to" : {
      "entityType" : "ASSET",
      "id" : "119eafd0-9e87-11ee-8b77-75c71c5ec4fa"
    },
    "type" : "Owns",
    "typeGroup" : "COMMON"
  }, {
    "additionalInfo" : null,
    "from" : {
      "entityType" : "CUSTOMER",
      "id" : "8d6e0b40-9f0b-11ee-8b77-75c71c5ec4fa"
    },
    "to" : {
      "entityType" : "ASSET",
      "id" : "15afbc60-a015-11ee-8b77-75c71c5ec4fa"
    },
    "type" : "Owns",
    "typeGroup" : "COMMON"
  }, {
    "additionalInfo" : null,
    "from" : {
      "entityType" : "CUSTOMER",
      "id" : "8d6e0b40-9f0b-11ee-8b77-75c71c5ec4fa"
    },
    "to" : {
      "entityType" : "ASSET",
      "id" : "192c20c0-9e87-11ee-8b77-75c71c5ec4fa"
    },
    "type" : "Owns",
    "typeGroup" : "COMMON"
  }, {
    "additionalInfo" : null,
    "from" : {
      "entityType" : "CUSTOMER",
      "id" : "8d6e0b40-9f0b-11ee-8b77-75c71c5ec4fa"
    },
    "to" : {
      "entityType" : "ASSET",
      "id" : "1bf59810-c054-11ee-8b77-75c71c5ec4fa"
    },
    "type" : "Contains",
    "typeGroup" : "COMMON"
  }, {
    "additionalInfo" : null,
    "from" : {
      "entityType" : "CUSTOMER",
      "id" : "8d6e0b40-9f0b-11ee-8b77-75c71c5ec4fa"
    },
    "to" : {
      "entityType" : "ASSET",
      "id" : "20541920-9e87-11ee-8b77-75c71c5ec4fa"
    },
    "type" : "Owns",
    "typeGroup" : "COMMON"
  }, {
    "additionalInfo" : null,
    "from" : {
      "entityType" : "CUSTOMER",
      "id" : "8d6e0b40-9f0b-11ee-8b77-75c71c5ec4fa"
    },
    "to" : {
      "entityType" : "ASSET",
      "id" : "41242de0-c054-11ee-8b77-75c71c5ec4fa"
    },
    "type" : "Contains",
    "typeGroup" : "COMMON"
  }, {
    "additionalInfo" : null,
    "from" : {
      "entityType" : "CUSTOMER",
      "id" : "8d6e0b40-9f0b-11ee-8b77-75c71c5ec4fa"
    },
    "to" : {
      "entityType" : "ASSET",
      "id" : "49c8a990-c053-11ee-8b77-75c71c5ec4fa"
    },
    "type" : "Contains",
    "typeGroup" : "COMMON"
  }, {
    "additionalInfo" : null,
    "from" : {
      "entityType" : "CUSTOMER",
      "id" : "8d6e0b40-9f0b-11ee-8b77-75c71c5ec4fa"
    },
    "to" : {
      "entityType" : "ASSET",
      "id" : "69de8280-c054-11ee-8b77-75c71c5ec4fa"
    },
    "type" : "Contains",
    "typeGroup" : "COMMON"
  }, {
    "additionalInfo" : null,
    "from" : {
      "entityType" : "CUSTOMER",
      "id" : "8d6e0b40-9f0b-11ee-8b77-75c71c5ec4fa"
    },
    "to" : {
      "entityType" : "ASSET",
      "id" : "6c598020-c4df-11ee-8575-953daf6985e5"
    },
    "type" : "Owns",
    "typeGroup" : "COMMON"
  } ],
  "attributes" : {
    "SERVER_SCOPE" : [ ]
  }
}