{
  "entityType" : "DEVICE",
  "entity" : {
    "additionalInfo" : {
      "gateway" : false,
      "overwriteActivityTime" : false,
      "description" : ""
    },
    "customerId" : {
      "entityType" : "CUSTOMER",
      "id" : "8d6e0b40-9f0b-11ee-8b77-75c71c5ec4fa"
    },
    "deviceData" : {
      "configuration" : {
        "type" : "DEFAULT"
      },
      "transportConfiguration" : {
        "type" : "DEFAULT"
      }
    },
    "deviceProfileId" : {
      "entityType" : "DEVICE_PROFILE",
      "id" : "a3872660-9e5b-11ee-8b77-75c71c5ec4fa"
    },
    "externalId" : null,
    "firmwareId" : null,
    "id" : {
      "entityType" : "DEVICE",
      "id" : "a07cfba0-c031-11ee-8b77-75c71c5ec4fa"
    },
    "label" : "",
    "name" : "lpr-66",
    "softwareId" : null,
    "type" : "lpr-camera"
  },
  "credentials" : {
    "credentialsId" : "ee5yvhXvoRnBSAosBPOO",
    "credentialsType" : "ACCESS_TOKEN",
    "credentialsValue" : null
  },
  "relations" : [ {
    "additionalInfo" : null,
    "from" : {
      "entityType" : "ASSET",
      "id" : "15afbc60-a015-11ee-8b77-75c71c5ec4fa"
    },
    "to" : {
      "entityType" : "DEVICE",
      "id" : "a07cfba0-c031-11ee-8b77-75c71c5ec4fa"
    },
    "type" : "Contains",
    "typeGroup" : "COMMON"
  } ],
  "attributes" : {
    "SERVER_SCOPE" : [ {
      "booleanValue" : false,
      "doubleValue" : null,
      "jsonValue" : null,
      "key" : "active",
      "lastUpdateTs" : 1706703161903,
      "longValue" : null,
      "strValue" : null
    }, {
      "booleanValue" : null,
      "doubleValue" : null,
      "jsonValue" : null,
      "key" : "inactivityAlarmTime",
      "lastUpdateTs" : 1706703161903,
      "longValue" : 1706703161903,
      "strValue" : null
    } ],
    "SHARED_SCOPE" : [ ]
  }
}